…
mr_trash_wheel_data
```

    ## # A tibble: 1,995 x 9
    ##    dumpster  year month day   weight_tons volume_cubic_ya~ homes_powered
    ##       <dbl> <dbl> <chr> <chr>       <dbl>            <dbl>         <dbl>
    ##  1        1  2014 May   16           4.31               18             0
    ##  2        1  2014 May   16           4.31               18             0
    ##  3        1  2014 May   16           4.31               18             0
    ##  4        1  2014 May   16           4.31               18             0
    ##  5        1  2014 May   16           4.31               18             0
    ##  6        1  2014 May   16           4.31               18             0
    ##  7        1  2014 May   16           4.31               18             0
    ##  8        2  2014 May   16           2.74               13             0
    ##  9        2  2014 May   16           2.74               13             0
    ## 10        2  2014 May   16           2.74               13             0
    ## # ... with 1,985 more rows, and 2 more variables: trash_category <chr>,
    ## #   number <dbl>
…
